%!PS-Adobe-3.0 EPSF-3.0
%%CreationDate: Mon Jul 25 08:08:03 2011
%%LanguageLevel: 3
%%BoundingBox: 0 0 80 77
%%EndComments
newpath
0.00 77.00 moveto
80.00 77.00 lineto
80.00 0.00 lineto
0.00 0.00 lineto
0.00 77.00 lineto
closepath
1.000 1.000 1.000 setrgbcolor
fill
newpath
29.62 63.27 moveto
30.34 67.41 33.53 70.70 37.78 71.10 curveto
37.66 68.48 37.53 65.87 37.42 63.25 curveto
34.82 63.27 32.22 63.27 29.62 63.27 curveto
closepath
0.647 0.149 0.149 setrgbcolor
fill
newpath
37.78 71.10 moveto
41.85 70.49 44.86 67.38 45.54 63.36 curveto
42.84 63.31 40.13 63.27 37.42 63.25 curveto
37.53 65.87 37.66 68.48 37.78 71.10 curveto
closepath
0.651 0.651 0.153 setrgbcolor
fill
newpath
29.62 63.27 moveto
32.22 63.27 34.82 63.27 37.42 63.25 curveto
37.48 60.58 37.52 57.90 37.58 55.23 curveto
33.40 55.83 30.18 59.08 29.62 63.27 curveto
closepath
0.180 0.180 0.678 setrgbcolor
fill
newpath
37.42 63.25 moveto
40.13 63.27 42.84 63.31 45.54 63.36 curveto
45.18 59.11 41.82 55.68 37.58 55.23 curveto
37.52 57.90 37.48 60.58 37.42 63.25 curveto
closepath
0.318 0.761 0.263 setrgbcolor
fill
newpath
38.95 51.02 moveto
46.64 55.54 56.77 55.36 64.05 50.10 curveto
66.17 48.41 68.90 46.77 69.55 43.95 curveto
69.20 44.41 68.52 45.34 68.17 45.80 curveto
64.05 48.90 59.27 51.53 53.96 51.53 curveto
45.75 52.11 37.55 47.60 33.39 40.54 curveto
28.60 32.48 29.09 21.26 35.69 14.32 curveto
24.89 22.06 25.78 39.17 34.86 47.91 curveto
31.67 47.77 28.44 48.14 25.28 47.64 curveto
16.53 35.83 18.92 18.08 29.32 8.03 curveto
15.70 17.16 13.55 37.62 22.66 50.67 curveto
28.08 51.00 33.61 50.26 38.95 51.02 curveto
closepath
0.000 0.000 0.000 setrgbcolor
fill
newpath
38.27 34.83 moveto
40.25 41.39 47.88 45.68 54.47 43.59 curveto
57.57 42.79 60.20 40.76 62.07 38.19 curveto
59.25 39.82 56.43 41.94 52.99 41.67 curveto
46.52 42.01 40.42 36.43 40.19 29.95 curveto
39.85 26.76 40.98 23.72 41.89 20.72 curveto
38.40 24.42 36.44 29.88 38.27 34.83 curveto
closepath
0.000 0.000 0.000 setrgbcolor
fill
newpath
51.71 32.38 moveto
55.02 32.40 58.34 32.40 61.65 32.40 curveto
61.65 31.74 61.64 30.43 61.64 29.77 curveto
59.50 29.77 57.36 29.78 55.22 29.79 curveto
55.22 29.22 55.20 28.08 55.19 27.51 curveto
54.32 27.50 52.58 27.48 51.70 27.47 curveto
51.71 29.11 51.71 30.74 51.71 32.38 curveto
closepath
0.000 0.000 0.000 setrgbcolor
fill
newpath
46.62 25.88 moveto
48.06 25.09 49.40 24.05 50.98 23.55 curveto
53.49 24.16 55.94 25.11 58.59 24.74 curveto
57.23 22.96 55.54 20.97 53.05 21.13 curveto
49.97 20.90 48.11 23.63 46.62 25.88 curveto
closepath
0.000 0.000 0.000 setrgbcolor
fill
%%EOF
